\begin{thebibliography}{10}

\bibitem{koltko2005potential}
Mark~E Koltko-Rivera.
\newblock The potential societal impact of virtual reality.
\newblock {\em Advances in virtual environments technology: Musings on design,
  evaluation, and applications}, 9, 2005.

\bibitem{Calvert01thesocial}
Sandra~L. Calvert.
\newblock The social impact of virtual reality.
\newblock 2001.

\bibitem{VirtualRealityandEthicalIssues}
Virtual~Reality Society.
\newblock Virtual reality and ethical issues, Visited: April, 29, 2016.
\newblock http://www.vrs.org.uk/virtual-reality/ethical-issues.html.

\bibitem{parsons2000development}
S~Parsons, L~Beardon, HR~Neale, G~Reynard, R~Eastgate, JR~Wilson, SV~Cobb,
  SD~Benford, P~Mitchell, and E~Hopkins.
\newblock Development of social skills amongst adults with asperger's syndrome
  using virtual environments: the 'as interactive'project.
\newblock pages 23--25, 2000.

\bibitem{parsons2002potential}
Sarah Parsons and Peter Mitchell.
\newblock The potential of virtual reality in social skills training for people
  with autistic spectrum disorders.
\newblock {\em Journal of Intellectual Disability Research}, 46(5):430--443,
  2002.

\bibitem{hoffman2001effectiveness}
Hunter~G Hoffman, David~R Patterson, Gretchen~J Carrougher, and Sam~R Sharar.
\newblock Effectiveness of virtual reality--based pain control with multiple
  treatments.
\newblock {\em The Clinical journal of pain}, 17(3):229--235, 2001.

\bibitem{burdea2002keynote}
Grigore Burdea.
\newblock Keynote address: Virtual rehabilitation-benefits and challenges.
\newblock pages 1--11, 2002.

\bibitem{monahan2008virtual}
Teresa Monahan, Gavin McArdle, and Michela Bertolotto.
\newblock Virtual reality for collaborative e-learning.
\newblock {\em Computers \& Education}, 50(4):1339--1353, 2008.

\bibitem{MilitarySimulator}
army.mil.
\newblock Virtual reality used to train soldiers in new training simulator,
  Visited: May, 1, 2016.
\newblock http://www.army.mil/article/84453/.

\bibitem{PygmalionsSpectacles}
Stanley~Grauman Weinbaum.
\newblock Pygmalion's spectacles, October 5, 2007 [EBook 22893].
\newblock http://www.gutenberg.org/files/22893/22893-h/22893-h.htm.

\bibitem{virtualrealitybegin}
Virtual~Reality Society.
\newblock How did virtual reality begin?, Visited: May, 2, 2016.
\newblock http://www.vrs.org.uk/virtual-reality/beginning.html.

\bibitem{sutherland1968head}
Ivan~E Sutherland.
\newblock A head-mounted three dimensional display.
\newblock pages 757--764, 1968.

\bibitem{virtualrealitydummies}
Augmented~Reality for Dummies.
\newblock Virtual reality (vr): 50 years of innovation!, Visited: May, 2, 2016.
\newblock http://www.ardummies.org/?p=61.

\bibitem{virtualrealityhistory}
Virtual~Reality Society.
\newblock History of virtual reality, Visited: May, 2, 2016.
\newblock http://www.vrs.org.uk/virtual-reality/history.html.

\bibitem{htcvive}
HTCVive.
\newblock Vive, Visited: May, 2, 2016.
\newblock https://www.htcvive.com/.

\bibitem{Unity3D}
Unity3d.
\newblock Unity3d, Visited: May, 1, 2016.
\newblock http://unity3d.com/.

\end{thebibliography}
